movie:zero day cast1: pos:4 neg:1 cast2:Calvin Robertson pos:4 neg:1
movie:zero effect neg:0 cast1: pos:4 neg:0 cast2:pos:3 neg:0 cast3:pos:1 neg cast4:pos:1 neg: 0
movie:one hour photo cast1:pos:3 neg:2 cast2: pos:0 neg:1  cast3: pos:0 neg:0
movie:101 dalmatians cast1: pos:4 neg:0 cast2: pos:1 neg:1  cast3: pos:0 neg:2
movie:102 dalmatians cast1: pos:1 neg: cast2: pos:0 neg:3  cast3:pos:1 neg:0  cast4: pos:0 neg:3
movie:12 monkeys cast1: pos:0 neg:1 cast2: pos:0 neg:0 cast3: pos:2 neg:0 cast4: pos:0 neg:0 
movie:12 monkeys cast1: pos:4 neg:1 cast2: pos:3 neg:0 cast3: pos:1 neg:0 cast4: pos:0 neg:0 
movie:12 monkeys cast1: pos:4 neg:0 cast2: pos:2 neg:0 cast3: pos:0 neg:0 cast4: pos:0 neg:0 
movie:Flushed Away cast1:0 pos:0 neg:2 cast2: pos:3 neg:0 cast3: pos:1 neg:0 cast4: pos:0 neg:0 
movie:Gandhi cast1: pos:1 neg:0 cast2: pos:1 neg:0 cast3: pos:1 neg:0 cast4: pos:0 neg:0 
movie:big daddy cast1: pos:4 neg:5 cast2: pos:1 neg:2 cast3: pos:1 neg:0 cast4: pos:0 neg:0  
movie:blue velvet cast1: pos:3 neg:5 cast2: pos:1 neg:6 cast3: pos:0 neg:2 cast4: pos:0 neg:0  
movie:dante's peak cast1: pos:42 neg:12 cast2: pos:3 neg:0 cast3: pos:0 neg:2 cast4: pos:0 neg:0
movie:deceiver cast1: pos:17 neg:7 cast2: pos:2 neg:0 cast3: pos:0 neg:1 cast4: pos:1 neg:0
movie:showgirls cast1: pos:4 neg:21 cast2: pos:4 neg:3 cast3: pos:2 neg:1 cast4: pos:1 neg:1
movie:double team cast1: pos:11 neg:2 cast2: pos:7 neg:1 cast3: pos:2 neg:1 cast4: pos:0 neg:0
movie:end of days cast1: pos:6 neg:4 cast2: pos:1 neg:2 cast3: pos:0 neg:1 cast4: pos:0 neg:0
movie:jurassic park iii cast1: pos:3 neg:1 cast2: pos:1 neg:0 cast3: pos:2 neg:0 cast4: pos:2 neg:0
movie:there's something about mary cast1: pos:16 neg:4 cast2: pos:5 neg:1 cast3: pos:1 neg:0 cast4: pos:2 neg:1